…
calculated_projection <-
  light_proj_inv(
    dataset = my_demand_and_supply,
    DFU = DFU,
    Period = Period,
    Demand =  Demand,
    Opening.Inventories = Opening.Inventories,
    Supply.Plan = Supply.Plan
  )
#> Joining, by = c("DFU", "Period")

# see results
calculated_projection
#> # A tibble: 24 × 7
#> # Groups:   DFU [1]
#>    DFU       Period     Demand Opening.Inventories Calculated.…¹ Proje…² Suppl…³
#>    <chr>     <date>      <dbl>               <dbl>         <dbl>   <dbl>   <dbl>
#>  1 Product A 2020-01-01    360                1310           2.7     950       0
#>  2 Product A 2020-02-01    458                   0           1.7     492       0
#>  3 Product A 2020-03-01    300                   0           0.7     192       0
#>  4 Product A 2020-04-01    264                   0           0       -72       0
#>  5 Product A 2020-05-01    140                   0           0      -212       0
#>  6 Product A 2020-06-01    233                   0           7.4    2055    2500
#>  7 Product A 2020-07-01    229                   0           6.4    1826       0
#>  8 Product A 2020-08-01    208                   0           5.4    1618       0
#>  9 Product A 2020-09-01    260                   0           4.4    1358       0
#> 10 Product A 2020-10-01    336                   0           3.4    1022       0
#> # … with 14 more rows, and abbreviated variable names
#> #   ¹​Calculated.Coverage.in.Periods, ²​Projected.Inventories.Qty, ³​Supply.Plan
```
