my-vignette • planr
…
projected coverages, based on the Demand Forecasts

# calculate
calculated_projection <- light_proj_inv(dataset = my_demand_and_suppply, 
                                        DFU = DFU, 
                                        Period = Period, 
                                        Demand =  Demand, 
                                        Opening.Inventories = Opening.Inventories, 
                                        Supply.Plan = Supply.Plan)
#> Joining, by = c("DFU", "Period")

# see results
calculated_projection
#> # A tibble: 24 × 7
#> # Groups:   DFU [1]
#>    DFU       Period     Demand Opening.Inventories Calculated.…¹ Proje…² Suppl…³
#>    <chr>     <date>      <dbl>               <dbl>         <dbl>   <dbl>   <dbl>
#>  1 Product A 2020-01-01    360                1310           2.7     950       0
#>  2 Product A 2020-02-01    458                   0           1.7     492       0
#>  3 Product A 2020-03-01    300                   0           0.7     192       0
#>  4 Product A 2020-04-01    264                   0           0       -72       0
#>  5 Product A 2020-05-01    140                   0           0      -212       0
#>  6 Product A 2020-06-01    233                   0           7.4    2055    2500
#>  7 Product A 2020-07-01    229                   0           6.4    1826       0
#>  8 Product A 2020-08-01    208                   0           5.4    1618       0
#>  9 Product A 2020-09-01    260                   0           4.4    1358       0
#> 10 Product A 2020-10-01    336                   0           3.4    1022       0
#> # … with 14 more rows, and abbreviated variable names
#> #   ¹​Calculated.Coverage.in.Periods, ²​Projected.Inventories.Qty, ³​Supply.Plan
…
Let’s apply the proj_inv() function

df1 <- proj_inv(data = my_data_with_parameters, 
                DFU = DFU, 
                Period = Period, 
                Demand =  Demand, 
                Opening.Inventories = Opening.Inventories, 
                Supply.Plan = Supply.Plan,
                Min.Stocks.Coverage = Min.Stocks.Coverage, 
                Max.Stocks.Coverage = Max.Stocks.Coverage)
#> Joining, by = c("DFU", "Period")
#> Joining, by = c("DFU", "Period")

df1
#> # A tibble: 24 × 14
#> # Groups:   DFU [1]
#>    DFU       Period     Demand Opening…¹ Calcu…² Proje…³ Suppl…⁴ Min.S…⁵ Max.S…⁶
#>    <chr>     <date>      <dbl>     <dbl>   <dbl>   <dbl>   <dbl>   <dbl>   <dbl>
#>  1 Product A 2020-01-01    360      1310     2.7     950       0       2       4
#>  2 Product A 2020-02-01    458         0     1.7     492       0       2       4
#>  3 Product A 2020-03-01    300         0     0.7     192       0       2       4
#>  4 Product A 2020-04-01    264         0     0       -72       0       2       4
#>  5 Product A 2020-05-01    140         0     0      -212       0       2       4
#>  6 Product A 2020-06-01    233         0     7.4    2055    2500       2       4
#>  7 Product A 2020-07-01    229         0     6.4    1826       0       2       4
#>  8 Product A 2020-08-01    208         0     5.4    1618       0       2       4
#>  9 Product A 2020-09-01    260         0     4.4    1358       0       2       4
#> 10 Product A 2020-10-01    336         0     3.4    1022       0       2       4
#> # … with 14 more rows, 5 more variables: Safety.Stocks <dbl>,
#> #   Maximum.Stocks <dbl>, PI.Index <chr>, Ratio.PI.vs.min <dbl>,
#> #   Ratio.PI.vs.Max <dbl>, and abbreviated variable names ¹​Opening.Inventories,
#> #   ²​Calculated.Coverage.in.Periods, ³​Projected.Inventories.Qty, ⁴​Supply.Plan,
#> #   ⁵​Min.Stocks.Coverage, ⁶​Max.Stocks.Coverage
…
demo_drp
#> # A tibble: 24 × 15
#> # Groups:   DFU [1]
#>    DFU   Period     Demand Openi…¹ Suppl…² SSCov DRPCo…³ Stock…⁴ Reord…⁵ DRP.G…⁶
#>    <chr> <date>      <dbl>   <dbl>   <dbl> <dbl>   <dbl>   <dbl>   <dbl> <chr>  
#>  1 Prod… 2020-01-01    360    1310       0     2       3       5       1 Frozen 
#>  2 Prod… 2020-02-01    458       0       0     2       3       5       1 Frozen 
#>  3 Prod… 2020-03-01    300       0       0     2       3       5       1 Frozen 
#>  4 Prod… 2020-04-01    264       0       0     2       3       5       1 Frozen 
#>  5 Prod… 2020-05-01    140       0       0     2       3       5       1 Frozen 
#>  6 Prod… 2020-06-01    233       0    2500     2       3       5       1 Frozen 
#>  7 Prod… 2020-07-01    229       0       0     2       3       5       1 Free   
#>  8 Prod… 2020-08-01    208       0       0     2       3       5       1 Free   
#>  9 Prod… 2020-09-01    260       0       0     2       3       5       1 Free   
#> 10 Prod… 2020-10-01    336       0       0     2       3       5       1 Free   
#> # … with 14 more rows, 5 more variables: Safety.Stocks <dbl>,
#> #   Maximum.Stocks <dbl>, DRP.Calculated.Coverage.in.Periods <dbl>,
#> #   DRP.Projected.Inventories.Qty <dbl>, DRP.plan <dbl>, and abbreviated
#> #   variable names ¹​Opening.Inventories, ²​Supply.Plan, ³​DRPCovDur, ⁴​Stock.Max,
#> #   ⁵​Reorder.Qty, ⁶​DRP.Grid
…
